%YAML 1.1
%TAG !u! tag:unity3d.com,2011:
--- !u!29 &1
OcclusionCullingSettings:
  m_ObjectHideFlags: 0
  serializedVersion: 2
  m_OcclusionBakeSettings:
    smallestOccluder: 5
    smallestHole: 0.25
    backfaceThreshold: 100
  m_SceneGUID: 00000000000000000000000000000000
  m_OcclusionCullingData: {fileID: 0}
--- !u!104 &2
RenderSettings:
  m_ObjectHideFlags: 0
  serializedVersion: 7
  m_Fog: 0
  m_FogColor: {r: 0.5, g: 0.5, b: 0.5, a: 1}
  m_FogMode: 3
  m_FogDensity: 0.01
  m_LinearFogStart: 0
  m_LinearFogEnd: 300
  m_AmbientSkyColor: {r: 0.212, g: 0.227, b: 0.259, a: 1}
  m_AmbientEquatorColor: {r: 0.114, g: 0.125, b: 0.133, a: 1}
  m_AmbientGroundColor: {r: 0.047, g: 0.043, b: 0.035, a: 1}
  m_AmbientIntensity: 1
  m_AmbientMode: 3
  m_SkyboxMaterial: {fileID: 0}
  m_HaloStrength: 0.5
  m_FlareStrength: 1
  m_FlareFadeSpeed: 3
  m_HaloTexture: {fileID: 0}
  m_SpotCookie: {fileID: 10001, guid: 0000000000000000e000000000000000, type: 0}
  m_DefaultReflectionMode: 0
  m_DefaultReflectionResolution: 128
  m_ReflectionBounces: 1
  m_ReflectionIntensity: 1
  m_CustomReflection: {fileID: 0}
  m_Sun: {fileID: 0}
  m_IndirectSpecularColor: {r: 0, g: 0, b: 0, a: 1}
--- !u!157 &3
LightmapSettings:
  m_ObjectHideFlags: 0
  serializedVersion: 7
  m_GIWorkflowMode: 1
  m_GISettings:
    serializedVersion: 2
    m_BounceScale: 1
    m_IndirectOutputScale: 1
    m_AlbedoBoost: 1
    m_TemporalCoherenceThreshold: 1
    m_EnvironmentLightingMode: 0
    m_EnableBakedLightmaps: 0
    m_EnableRealtimeLightmaps: 0
  m_LightmapEditorSettings:
    serializedVersion: 4
    m_Resolution: 2
    m_BakeResolution: 40
    m_TextureWidth: 1024
    m_TextureHeight: 1024
    m_AO: 0
    m_AOMaxDistance: 1
    m_CompAOExponent: 1
    m_CompAOExponentDirect: 0
    m_Padding: 2
    m_LightmapParameters: {fileID: 0}
    m_LightmapsBakeMode: 1
    m_TextureCompression: 1
    m_DirectLightInLightProbes: 1
    m_FinalGather: 0
    m_FinalGatherFiltering: 1
    m_FinalGatherRayCount: 256
    m_ReflectionCompression: 2
  m_LightingDataAsset: {fileID: 0}
  m_RuntimeCPUUsage: 25
--- !u!196 &4
NavMeshSettings:
  serializedVersion: 2
  m_ObjectHideFlags: 0
  m_BuildSettings:
    serializedVersion: 2
    agentTypeID: 0
    agentRadius: 0.5
    agentHeight: 2
    agentSlope: 45
    agentClimb: 0.4
    ledgeDropHeight: 0
    maxJumpAcrossDistance: 0
    minRegionArea: 2
    manualCellSize: 0
    cellSize: 0.16666667
    accuratePlacement: 0
  m_NavMeshData: {fileID: 0}
--- !u!1001 &68502961
Prefab:
  m_ObjectHideFlags: 0
  serializedVersion: 2
  m_Modification:
    m_TransformParent: {fileID: 0}
    m_Modifications:
    - target: {fileID: 4170003166198846, guid: 3b14b01f29ba8ba489f4d9f4ecd947e9, type: 2}
      propertyPath: m_LocalPosition.x
      value: 0
      objectReference: {fileID: 0}
    - target: {fileID: 4170003166198846, guid: 3b14b01f29ba8ba489f4d9f4ecd947e9, type: 2}
      propertyPath: m_LocalPosition.y
      value: 0
      objectReference: {fileID: 0}
    - target: {fileID: 4170003166198846, guid: 3b14b01f29ba8ba489f4d9f4ecd947e9, type: 2}
      propertyPath: m_LocalPosition.z
      value: 0
      objectReference: {fileID: 0}
    - target: {fileID: 4170003166198846, guid: 3b14b01f29ba8ba489f4d9f4ecd947e9, type: 2}
      propertyPath: m_LocalRotation.x
      value: 0
      objectReference: {fileID: 0}
    - target: {fileID: 4170003166198846, guid: 3b14b01f29ba8ba489f4d9f4ecd947e9, type: 2}
      propertyPath: m_LocalRotation.y
      value: 0
      objectReference: {fileID: 0}
    - target: {fileID: 4170003166198846, guid: 3b14b01f29ba8ba489f4d9f4ecd947e9, type: 2}
      propertyPath: m_LocalRotation.z
      value: 0
      objectReference: {fileID: 0}
    - target: {fileID: 4170003166198846, guid: 3b14b01f29ba8ba489f4d9f4ecd947e9, type: 2}
      propertyPath: m_LocalRotation.w
      value: 1
      objectReference: {fileID: 0}
    - target: {fileID: 4170003166198846, guid: 3b14b01f29ba8ba489f4d9f4ecd947e9, type: 2}
      propertyPath: m_RootOrder
      value: 4
      objectReference: {fileID: 0}
    m_RemovedComponents: []
  m_ParentPrefab: {fileID: 100100000, guid: 3b14b01f29ba8ba489f4d9f4ecd947e9, type: 2}
  m_IsPrefabParent: 0
--- !u!1001 &112985316
Prefab:
  m_ObjectHideFlags: 0
  serializedVersion: 2
  m_Modification:
    m_TransformParent: {fileID: 0}
    m_Modifications:
    - target: {fileID: 4703216186837730, guid: 5a1e365c71b38604bb10cee48dfc80d0, type: 2}
      propertyPath: m_LocalPosition.x
      value: 40.7
      objectReference: {fileID: 0}
    - target: {fileID: 4703216186837730, guid: 5a1e365c71b38604bb10cee48dfc80d0, type: 2}
      propertyPath: m_LocalPosition.y
      value: 34.6
      objectReference: {fileID: 0}
    - target: {fileID: 4703216186837730, guid: 5a1e365c71b38604bb10cee48dfc80d0, type: 2}
      propertyPath: m_LocalPosition.z
      value: 0
      objectReference: {fileID: 0}
    - target: {fileID: 4703216186837730, guid: 5a1e365c71b38604bb10cee48dfc80d0, type: 2}
      propertyPath: m_LocalRotation.x
      value: 0
      objectReference: {fileID: 0}
    - target: {fileID: 4703216186837730, guid: 5a1e365c71b38604bb10cee48dfc80d0, type: 2}
      propertyPath: m_LocalRotation.y
      value: 0
      objectReference: {fileID: 0}
    - target: {fileID: 4703216186837730, guid: 5a1e365c71b38604bb10cee48dfc80d0, type: 2}
      propertyPath: m_LocalRotation.z
      value: 0
      objectReference: {fileID: 0}
    - target: {fileID: 4703216186837730, guid: 5a1e365c71b38604bb10cee48dfc80d0, type: 2}
      propertyPath: m_LocalRotation.w
      value: 1
      objectReference: {fileID: 0}
    - target: {fileID: 4703216186837730, guid: 5a1e365c71b38604bb10cee48dfc80d0, type: 2}
      propertyPath: m_RootOrder
      value: 9
      objectReference: {fileID: 0}
    - target: {fileID: 1401717264300876, guid: 5a1e365c71b38604bb10cee48dfc80d0, type: 2}
      propertyPath: m_Name
      value: Naval_Mine (4)
      objectReference: {fileID: 0}
    - target: {fileID: 114707213092405212, guid: 5a1e365c71b38604bb10cee48dfc80d0,
        type: 2}
      propertyPath: Duration
      value: 2
      objectReference: {fileID: 0}
    - target: {fileID: 114707213092405212, guid: 5a1e365c71b38604bb10cee48dfc80d0,
        type: 2}
      propertyPath: ExplosionSound
      value: MineBoom
      objectReference: {fileID: 0}
    m_RemovedComponents: []
  m_ParentPrefab: {fileID: 100100000, guid: 5a1e365c71b38604bb10cee48dfc80d0, type: 2}
  m_IsPrefabParent: 0
--- !u!1001 &212192190
Prefab:
  m_ObjectHideFlags: 0
  serializedVersion: 2
  m_Modification:
    m_TransformParent: {fileID: 0}
    m_Modifications:
    - target: {fileID: 4626708927508598, guid: 33f4d2e7f8338b2478d186ad26ccc0c3, type: 2}
      propertyPath: m_LocalPosition.x
      value: 0
      objectReference: {fileID: 0}
    - target: {fileID: 4626708927508598, guid: 33f4d2e7f8338b2478d186ad26ccc0c3, type: 2}
      propertyPath: m_LocalPosition.y
      value: 0
      objectReference: {fileID: 0}
    - target: {fileID: 4626708927508598, guid: 33f4d2e7f8338b2478d186ad26ccc0c3, type: 2}
      propertyPath: m_LocalPosition.z
      value: 0
      objectReference: {fileID: 0}
    - target: {fileID: 4626708927508598, guid: 33f4d2e7f8338b2478d186ad26ccc0c3, type: 2}
      propertyPath: m_LocalRotation.x
      value: 0
      objectReference: {fileID: 0}
    - target: {fileID: 4626708927508598, guid: 33f4d2e7f8338b2478d186ad26ccc0c3, type: 2}
      propertyPath: m_LocalRotation.y
      value: 0
      objectReference: {fileID: 0}
    - target: {fileID: 4626708927508598, guid: 33f4d2e7f8338b2478d186ad26ccc0c3, type: 2}
      propertyPath: m_LocalRotation.z
      value: 0
      objectReference: {fileID: 0}
    - target: {fileID: 4626708927508598, guid: 33f4d2e7f8338b2478d186ad26ccc0c3, type: 2}
      propertyPath: m_LocalRotation.w
      value: 1
      objectReference: {fileID: 0}
    - target: {fileID: 4626708927508598, guid: 33f4d2e7f8338b2478d186ad26ccc0c3, type: 2}
      propertyPath: m_RootOrder
      value: 3
      objectReference: {fileID: 0}
    m_RemovedComponents: []
  m_ParentPrefab: {fileID: 100100000, guid: 33f4d2e7f8338b2478d186ad26ccc0c3, type: 2}
  m_IsPrefabParent: 0
--- !u!1001 &517213763
Prefab:
  m_ObjectHideFlags: 0
  serializedVersion: 2
  m_Modification:
    m_TransformParent: {fileID: 0}
    m_Modifications:
    - target: {fileID: 4039830228608272, guid: 7e791abda9996744b9643b2ad92018fb, type: 2}
      propertyPath: m_LocalPosition.x
      value: -23.8
      objectReference: {fileID: 0}
    - target: {fileID: 4039830228608272, guid: 7e791abda9996744b9643b2ad92018fb, type: 2}
      propertyPath: m_LocalPosition.y
      value: 23.9
      objectReference: {fileID: 0}
    - target: {fileID: 4039830228608272, guid: 7e791abda9996744b9643b2ad92018fb, type: 2}
      propertyPath: m_LocalPosition.z
      value: 0
      objectReference: {fileID: 0}
    - target: {fileID: 4039830228608272, guid: 7e791abda9996744b9643b2ad92018fb, type: 2}
      propertyPath: m_LocalRotation.x
      value: 0
      objectReference: {fileID: 0}
    - target: {fileID: 4039830228608272, guid: 7e791abda9996744b9643b2ad92018fb, type: 2}
      propertyPath: m_LocalRotation.y
      value: 0
      objectReference: {fileID: 0}
    - target: {fileID: 4039830228608272, guid: 7e791abda9996744b9643b2ad92018fb, type: 2}
      propertyPath: m_LocalRotation.z
      value: 0
      objectReference: {fileID: 0}
    - target: {fileID: 4039830228608272, guid: 7e791abda9996744b9643b2ad92018fb, type: 2}
      propertyPath: m_LocalRotation.w
      value: 1
      objectReference: {fileID: 0}
    - target: {fileID: 4039830228608272, guid: 7e791abda9996744b9643b2ad92018fb, type: 2}
      propertyPath: m_RootOrder
      value: 5
      objectReference: {fileID: 0}
    m_RemovedComponents: []
  m_ParentPrefab: {fileID: 100100000, guid: 7e791abda9996744b9643b2ad92018fb, type: 2}
  m_IsPrefabParent: 0
--- !u!1001 &568861561
Prefab:
  m_ObjectHideFlags: 0
  serializedVersion: 2
  m_Modification:
    m_TransformParent: {fileID: 0}
    m_Modifications:
    - target: {fileID: 4926354614778444, guid: 0d85198d76d405c4a8551b3248c6dde2, type: 2}
      propertyPath: m_LocalPosition.x
      value: 8.3
      objectReference: {fileID: 0}
    - target: {fileID: 4926354614778444, guid: 0d85198d76d405c4a8551b3248c6dde2, type: 2}
      propertyPath: m_LocalPosition.y
      value: -22.2
      objectReference: {fileID: 0}
    - target: {fileID: 4926354614778444, guid: 0d85198d76d405c4a8551b3248c6dde2, type: 2}
      propertyPath: m_LocalPosition.z
      value: 0
      objectReference: {fileID: 0}
    - target: {fileID: 4926354614778444, guid: 0d85198d76d405c4a8551b3248c6dde2, type: 2}
      propertyPath: m_LocalRotation.x
      value: 0
      objectReference: {fileID: 0}
    - target: {fileID: 4926354614778444, guid: 0d85198d76d405c4a8551b3248c6dde2, type: 2}
      propertyPath: m_LocalRotation.y
      value: 0
      objectReference: {fileID: 0}
    - target: {fileID: 4926354614778444, guid: 0d85198d76d405c4a8551b3248c6dde2, type: 2}
      propertyPath: m_LocalRotation.z
      value: 0
      objectReference: {fileID: 0}
    - target: {fileID: 4926354614778444, guid: 0d85198d76d405c4a8551b3248c6dde2, type: 2}
      propertyPath: m_LocalRotation.w
      value: 1
      objectReference: {fileID: 0}
    - target: {fileID: 4926354614778444, guid: 0d85198d76d405c4a8551b3248c6dde2, type: 2}
      propertyPath: m_RootOrder
      value: 10
      objectReference: {fileID: 0}
    m_RemovedComponents: []
  m_ParentPrefab: {fileID: 100100000, guid: 0d85198d76d405c4a8551b3248c6dde2, type: 2}
  m_IsPrefabParent: 0
--- !u!114 &568861562 stripped
MonoBehaviour:
  m_PrefabParentObject: {fileID: 114943663414895388, guid: 0d85198d76d405c4a8551b3248c6dde2,
    type: 2}
  m_PrefabInternal: {fileID: 568861561}
  m_Script: {fileID: 11500000, guid: 178d699341936c440b3fb81faff791f3, type: 3}
--- !u!1001 &1563555081
Prefab:
  m_ObjectHideFlags: 0
  serializedVersion: 2
  m_Modification:
    m_TransformParent: {fileID: 0}
    m_Modifications:
    - target: {fileID: 4206797772178010, guid: 8e30cf26ead68cf4d8bee256779b58bb, type: 2}
      propertyPath: m_LocalPosition.x
      value: -1.8299999
      objectReference: {fileID: 0}
    - target: {fileID: 4206797772178010, guid: 8e30cf26ead68cf4d8bee256779b58bb, type: 2}
      propertyPath: m_LocalPosition.y
      value: 1.33
      objectReference: {fileID: 0}
    - target: {fileID: 4206797772178010, guid: 8e30cf26ead68cf4d8bee256779b58bb, type: 2}
      propertyPath: m_LocalPosition.z
      value: 0
      objectReference: {fileID: 0}
    - target: {fileID: 4206797772178010, guid: 8e30cf26ead68cf4d8bee256779b58bb, type: 2}
      propertyPath: m_LocalRotation.x
      value: -0
      objectReference: {fileID: 0}
    - target: {fileID: 4206797772178010, guid: 8e30cf26ead68cf4d8bee256779b58bb, type: 2}
      propertyPath: m_LocalRotation.y
      value: -0
      objectReference: {fileID: 0}
    - target: {fileID: 4206797772178010, guid: 8e30cf26ead68cf4d8bee256779b58bb, type: 2}
      propertyPath: m_LocalRotation.z
      value: -0.2544522
      objectReference: {fileID: 0}
    - target: {fileID: 4206797772178010, guid: 8e30cf26ead68cf4d8bee256779b58bb, type: 2}
      propertyPath: m_LocalRotation.w
      value: 0.96708536
      objectReference: {fileID: 0}
    - target: {fileID: 4206797772178010, guid: 8e30cf26ead68cf4d8bee256779b58bb, type: 2}
      propertyPath: m_RootOrder
      value: 2
      objectReference: {fileID: 0}
    m_RemovedComponents: []
  m_ParentPrefab: {fileID: 100100000, guid: 8e30cf26ead68cf4d8bee256779b58bb, type: 2}
  m_IsPrefabParent: 0
--- !u!1001 &1690469273
Prefab:
  m_ObjectHideFlags: 0
  serializedVersion: 2
  m_Modification:
    m_TransformParent: {fileID: 0}
    m_Modifications:
    - target: {fileID: 4198462689559350, guid: 438ac685b39e7de4793d985e7cd3736f, type: 2}
      propertyPath: m_LocalPosition.x
      value: 0
      objectReference: {fileID: 0}
    - target: {fileID: 4198462689559350, guid: 438ac685b39e7de4793d985e7cd3736f, type: 2}
      propertyPath: m_LocalPosition.y
      value: 0
      objectReference: {fileID: 0}
    - target: {fileID: 4198462689559350, guid: 438ac685b39e7de4793d985e7cd3736f, type: 2}
      propertyPath: m_LocalPosition.z
      value: -10
      objectReference: {fileID: 0}
    - target: {fileID: 4198462689559350, guid: 438ac685b39e7de4793d985e7cd3736f, type: 2}
      propertyPath: m_LocalRotation.x
      value: 0
      objectReference: {fileID: 0}
    - target: {fileID: 4198462689559350, guid: 438ac685b39e7de4793d985e7cd3736f, type: 2}
      propertyPath: m_LocalRotation.y
      value: 0
      objectReference: {fileID: 0}
    - target: {fileID: 4198462689559350, guid: 438ac685b39e7de4793d985e7cd3736f, type: 2}
      propertyPath: m_LocalRotation.z
      value: 0
      objectReference: {fileID: 0}
    - target: {fileID: 4198462689559350, guid: 438ac685b39e7de4793d985e7cd3736f, type: 2}
      propertyPath: m_LocalRotation.w
      value: 1
      objectReference: {fileID: 0}
    - target: {fileID: 4198462689559350, guid: 438ac685b39e7de4793d985e7cd3736f, type: 2}
      propertyPath: m_RootOrder
      value: 0
      objectReference: {fileID: 0}
    - target: {fileID: 114301891482460948, guid: 438ac685b39e7de4793d985e7cd3736f,
        type: 2}
      propertyPath: Target
      value: 
      objectReference: {fileID: 1810050553}
    m_RemovedComponents: []
  m_ParentPrefab: {fileID: 100100000, guid: 438ac685b39e7de4793d985e7cd3736f, type: 2}
  m_IsPrefabParent: 0
--- !u!1 &1810050547 stripped
GameObject:
  m_PrefabParentObject: {fileID: 1947673634516394, guid: 8e30cf26ead68cf4d8bee256779b58bb,
    type: 2}
  m_PrefabInternal: {fileID: 1563555081}
--- !u!4 &1810050553 stripped
Transform:
  m_PrefabParentObject: {fileID: 4206797772178010, guid: 8e30cf26ead68cf4d8bee256779b58bb,
    type: 2}
  m_PrefabInternal: {fileID: 1563555081}
--- !u!1001 &1840158209
Prefab:
  m_ObjectHideFlags: 0
  serializedVersion: 2
  m_Modification:
    m_TransformParent: {fileID: 0}
    m_Modifications:
    - target: {fileID: 4703216186837730, guid: 5a1e365c71b38604bb10cee48dfc80d0, type: 2}
      propertyPath: m_LocalPosition.x
      value: -19.6
      objectReference: {fileID: 0}
    - target: {fileID: 4703216186837730, guid: 5a1e365c71b38604bb10cee48dfc80d0, type: 2}
      propertyPath: m_LocalPosition.y
      value: -25
      objectReference: {fileID: 0}
    - target: {fileID: 4703216186837730, guid: 5a1e365c71b38604bb10cee48dfc80d0, type: 2}
      propertyPath: m_LocalPosition.z
      value: 0
      objectReference: {fileID: 0}
    - target: {fileID: 4703216186837730, guid: 5a1e365c71b38604bb10cee48dfc80d0, type: 2}
      propertyPath: m_LocalRotation.x
      value: 0
      objectReference: {fileID: 0}
    - target: {fileID: 4703216186837730, guid: 5a1e365c71b38604bb10cee48dfc80d0, type: 2}
      propertyPath: m_LocalRotation.y
      value: 0
      objectReference: {fileID: 0}
    - target: {fileID: 4703216186837730, guid: 5a1e365c71b38604bb10cee48dfc80d0, type: 2}
      propertyPath: m_LocalRotation.z
      value: 0
      objectReference: {fileID: 0}
    - target: {fileID: 4703216186837730, guid: 5a1e365c71b38604bb10cee48dfc80d0, type: 2}
      propertyPath: m_LocalRotation.w
      value: 1
      objectReference: {fileID: 0}
    - target: {fileID: 4703216186837730, guid: 5a1e365c71b38604bb10cee48dfc80d0, type: 2}
      propertyPath: m_RootOrder
      value: 7
      objectReference: {fileID: 0}
    - target: {fileID: 1401717264300876, guid: 5a1e365c71b38604bb10cee48dfc80d0, type: 2}
      propertyPath: m_Name
      value: Naval_Mine (2)
      objectReference: {fileID: 0}
    - target: {fileID: 114707213092405212, guid: 5a1e365c71b38604bb10cee48dfc80d0,
        type: 2}
      propertyPath: Duration
      value: 2
      objectReference: {fileID: 0}
    - target: {fileID: 114707213092405212, guid: 5a1e365c71b38604bb10cee48dfc80d0,
        type: 2}
      propertyPath: ExplosionSound
      value: MineBoom
      objectReference: {fileID: 0}
    m_RemovedComponents: []
  m_ParentPrefab: {fileID: 100100000, guid: 5a1e365c71b38604bb10cee48dfc80d0, type: 2}
  m_IsPrefabParent: 0
--- !u!1001 &1948516506
Prefab:
  m_ObjectHideFlags: 0
  serializedVersion: 2
  m_Modification:
    m_TransformParent: {fileID: 0}
    m_Modifications:
    - target: {fileID: 4703216186837730, guid: 5a1e365c71b38604bb10cee48dfc80d0, type: 2}
      propertyPath: m_LocalPosition.x
      value: 48.1
      objectReference: {fileID: 0}
    - target: {fileID: 4703216186837730, guid: 5a1e365c71b38604bb10cee48dfc80d0, type: 2}
      propertyPath: m_LocalPosition.y
      value: -11.5
      objectReference: {fileID: 0}
    - target: {fileID: 4703216186837730, guid: 5a1e365c71b38604bb10cee48dfc80d0, type: 2}
      propertyPath: m_LocalPosition.z
      value: 0
      objectReference: {fileID: 0}
    - target: {fileID: 4703216186837730, guid: 5a1e365c71b38604bb10cee48dfc80d0, type: 2}
      propertyPath: m_LocalRotation.x
      value: 0
      objectReference: {fileID: 0}
    - target: {fileID: 4703216186837730, guid: 5a1e365c71b38604bb10cee48dfc80d0, type: 2}
      propertyPath: m_LocalRotation.y
      value: 0
      objectReference: {fileID: 0}
    - target: {fileID: 4703216186837730, guid: 5a1e365c71b38604bb10cee48dfc80d0, type: 2}
      propertyPath: m_LocalRotation.z
      value: 0
      objectReference: {fileID: 0}
    - target: {fileID: 4703216186837730, guid: 5a1e365c71b38604bb10cee48dfc80d0, type: 2}
      propertyPath: m_LocalRotation.w
      value: 1
      objectReference: {fileID: 0}
    - target: {fileID: 4703216186837730, guid: 5a1e365c71b38604bb10cee48dfc80d0, type: 2}
      propertyPath: m_RootOrder
      value: 8
      objectReference: {fileID: 0}
    - target: {fileID: 1401717264300876, guid: 5a1e365c71b38604bb10cee48dfc80d0, type: 2}
      propertyPath: m_Name
      value: Naval_Mine (3)
      objectReference: {fileID: 0}
    - target: {fileID: 114707213092405212, guid: 5a1e365c71b38604bb10cee48dfc80d0,
        type: 2}
      propertyPath: Duration
      value: 2
      objectReference: {fileID: 0}
    - target: {fileID: 114707213092405212, guid: 5a1e365c71b38604bb10cee48dfc80d0,
        type: 2}
      propertyPath: ExplosionSound
      value: MineBoom
      objectReference: {fileID: 0}
    m_RemovedComponents: []
  m_ParentPrefab: {fileID: 100100000, guid: 5a1e365c71b38604bb10cee48dfc80d0, type: 2}
  m_IsPrefabParent: 0
--- !u!1001 &2024390294
Prefab:
  m_ObjectHideFlags: 0
  serializedVersion: 2
  m_Modification:
    m_TransformParent: {fileID: 0}
    m_Modifications:
    - target: {fileID: 4703216186837730, guid: 5a1e365c71b38604bb10cee48dfc80d0, type: 2}
      propertyPath: m_LocalPosition.x
      value: -30.2
      objectReference: {fileID: 0}
    - target: {fileID: 4703216186837730, guid: 5a1e365c71b38604bb10cee48dfc80d0, type: 2}
      propertyPath: m_LocalPosition.y
      value: -31.7
      objectReference: {fileID: 0}
    - target: {fileID: 4703216186837730, guid: 5a1e365c71b38604bb10cee48dfc80d0, type: 2}
      propertyPath: m_LocalPosition.z
      value: 0
      objectReference: {fileID: 0}
    - target: {fileID: 4703216186837730, guid: 5a1e365c71b38604bb10cee48dfc80d0, type: 2}
      propertyPath: m_LocalRotation.x
      value: 0
      objectReference: {fileID: 0}
    - target: {fileID: 4703216186837730, guid: 5a1e365c71b38604bb10cee48dfc80d0, type: 2}
      propertyPath: m_LocalRotation.y
      value: 0
      objectReference: {fileID: 0}
    - target: {fileID: 4703216186837730, guid: 5a1e365c71b38604bb10cee48dfc80d0, type: 2}
      propertyPath: m_LocalRotation.z
      value: 0
      objectReference: {fileID: 0}
    - target: {fileID: 4703216186837730, guid: 5a1e365c71b38604bb10cee48dfc80d0, type: 2}
      propertyPath: m_LocalRotation.w
      value: 1
      objectReference: {fileID: 0}
    - target: {fileID: 4703216186837730, guid: 5a1e365c71b38604bb10cee48dfc80d0, type: 2}
      propertyPath: m_RootOrder
      value: 6
      objectReference: {fileID: 0}
    - target: {fileID: 1401717264300876, guid: 5a1e365c71b38604bb10cee48dfc80d0, type: 2}
      propertyPath: m_Name
      value: Naval_Mine (1)
      objectReference: {fileID: 0}
    - target: {fileID: 114707213092405212, guid: 5a1e365c71b38604bb10cee48dfc80d0,
        type: 2}
      propertyPath: Duration
      value: 2
      objectReference: {fileID: 0}
    - target: {fileID: 114707213092405212, guid: 5a1e365c71b38604bb10cee48dfc80d0,
        type: 2}
      propertyPath: ExplosionSound
      value: MineBoom
      objectReference: {fileID: 0}
    m_RemovedComponents: []
  m_ParentPrefab: {fileID: 100100000, guid: 5a1e365c71b38604bb10cee48dfc80d0, type: 2}
  m_IsPrefabParent: 0
--- !u!1001 &2027730095
Prefab:
  m_ObjectHideFlags: 0
  serializedVersion: 2
  m_Modification:
    m_TransformParent: {fileID: 0}
    m_Modifications:
    - target: {fileID: 4601667335967270, guid: 38036c8d084eb39449bacb087ab7f6cd, type: 2}
      propertyPath: m_LocalPosition.x
      value: 0
      objectReference: {fileID: 0}
    - target: {fileID: 4601667335967270, guid: 38036c8d084eb39449bacb087ab7f6cd, type: 2}
      propertyPath: m_LocalPosition.y
      value: 0
      objectReference: {fileID: 0}
    - target: {fileID: 4601667335967270, guid: 38036c8d084eb39449bacb087ab7f6cd, type: 2}
      propertyPath: m_LocalPosition.z
      value: 0
      objectReference: {fileID: 0}
    - target: {fileID: 4601667335967270, guid: 38036c8d084eb39449bacb087ab7f6cd, type: 2}
      propertyPath: m_LocalRotation.x
      value: 0
      objectReference: {fileID: 0}
    - target: {fileID: 4601667335967270, guid: 38036c8d084eb39449bacb087ab7f6cd, type: 2}
      propertyPath: m_LocalRotation.y
      value: 0
      objectReference: {fileID: 0}
    - target: {fileID: 4601667335967270, guid: 38036c8d084eb39449bacb087ab7f6cd, type: 2}
      propertyPath: m_LocalRotation.z
      value: 0
      objectReference: {fileID: 0}
    - target: {fileID: 4601667335967270, guid: 38036c8d084eb39449bacb087ab7f6cd, type: 2}
      propertyPath: m_LocalRotation.w
      value: 1
      objectReference: {fileID: 0}
    - target: {fileID: 4601667335967270, guid: 38036c8d084eb39449bacb087ab7f6cd, type: 2}
      propertyPath: m_RootOrder
      value: 1
      objectReference: {fileID: 0}
    - target: {fileID: 114686177663373008, guid: 38036c8d084eb39449bacb087ab7f6cd,
        type: 2}
      propertyPath: WaveCreationIndicator
      value: 
      objectReference: {fileID: 568861562}
    - target: {fileID: 114972378167577000, guid: 38036c8d084eb39449bacb087ab7f6cd,
        type: 2}
      propertyPath: Trackers.Array.data[0].Player
      value: 
      objectReference: {fileID: 1810050547}
    m_RemovedComponents: []
  m_ParentPrefab: {fileID: 100100000, guid: 38036c8d084eb39449bacb087ab7f6cd, type: 2}
  m_IsPrefabParent: 0
